^C:\USERS\VLAD\DOCUMENTS\VISUAL STUDIO 2010\PROJECTS\MFW1\MFW1\STDAFX.CPP
C:\USERS\VLAD\DOCUMENTS\VISUAL STUDIO 2010\PROJECTS\MFW1\MFW1\DEBUG\MFW1.PCH
C:\USERS\VLAD\DOCUMENTS\VISUAL STUDIO 2010\PROJECTS\MFW1\MFW1\DEBUG\STDAFX.OBJ
C:\USERS\VLAD\DOCUMENTS\VISUAL STUDIO 2010\PROJECTS\MFW1\MFW1\DEBUG\VC100.PDB
^C:\USERS\VLAD\DOCUMENTS\VISUAL STUDIO 2010\PROJECTS\MFW1\MFW1\ASSEMBLYINFO.CPP|C:\USERS\VLAD\DOCUMENTS\VISUAL STUDIO 2010\PROJECTS\MFW1\MFW1\MFW1.CPP
C:\USERS\VLAD\DOCUMENTS\VISUAL STUDIO 2010\PROJECTS\MFW1\MFW1\DEBUG\MFW1.OBJ
C:\USERS\VLAD\DOCUMENTS\VISUAL STUDIO 2010\PROJECTS\MFW1\MFW1\DEBUG\ASSEMBLYINFO.OBJ
^C:\USERS\VLAD\DOCUMENTS\VISUAL STUDIO 2010\PROJECTS\MFW1\MFW1\ASSEMBLYINFO.CPP
C:\USERS\VLAD\DOCUMENTS\VISUAL STUDIO 2010\PROJECTS\MFW1\MFW1\DEBUG\VC100.PDB
^C:\USERS\VLAD\APPDATA\LOCAL\TEMP\.NETFRAMEWORK,VERSION=V4.0.ASSEMBLYATTRIBUTES.CPP
C:\USERS\VLAD\DOCUMENTS\VISUAL STUDIO 2010\PROJECTS\MFW1\MFW1\DEBUG\.NETFRAMEWORK,VERSION=V4.0.ASSEMBLYATTRIBUTES.OBJ
C:\USERS\VLAD\DOCUMENTS\VISUAL STUDIO 2010\PROJECTS\MFW1\MFW1\DEBUG\VC100.PDB
^C:\USERS\VLAD\DOCUMENTS\VISUAL STUDIO 2010\PROJECTS\MFW1\MFW1\MFW1.CPP
C:\USERS\VLAD\DOCUMENTS\VISUAL STUDIO 2010\PROJECTS\MFW1\MFW1\DEBUG\MFW1.OBJ
C:\USERS\VLAD\DOCUMENTS\VISUAL STUDIO 2010\PROJECTS\MFW1\MFW1\DEBUG\VC100.PDB
