^C:\USERS\VLAD\DOCUMENTS\VISUAL STUDIO 2010\PROJECTS\MFW1\MFW1\DEBUG\MFW1.EXE.INTERMEDIATE.MANIFEST
C:\WINDOWS\MICROSOFT.NET\FRAMEWORK\V2.0.50727\MSCORWKS.DLL
C:\WINDOWS\MICROSOFT.NET\FRAMEWORK\V4.0.30319\CLR.DLL
C:\PROGRAM FILES (X86)\MICROSOFT SDKS\WINDOWS\V7.0A\BIN\MT.EXE.CONFIG
C:\USERS\VLAD\DOCUMENTS\VISUAL STUDIO 2010\PROJECTS\MFW1\DEBUG\MFW1.EXE
